\beamer@endinputifotherversion {3.36pt}
\headcommand {\slideentry {0}{0}{1}{1/1}{}{0}}
\headcommand {\beamer@framepages {1}{1}}
\headcommand {\slideentry {0}{0}{2}{2/2}{}{0}}
\headcommand {\beamer@framepages {2}{2}}
\headcommand {\slideentry {0}{0}{3}{3/7}{}{0}}
\headcommand {\beamer@framepages {3}{7}}
\headcommand {\sectionentry {1}{Background}{8}{Background}{0}}
\headcommand {\beamer@sectionpages {1}{7}}
\headcommand {\beamer@subsectionpages {1}{7}}
\headcommand {\slideentry {1}{0}{1}{8/8}{}{0}}
\headcommand {\beamer@framepages {8}{8}}
\headcommand {\beamer@subsectionentry {0}{1}{1}{9}{Hardware Security Modules}}\headcommand {\beamer@subsectionpages {8}{8}}
\headcommand {\slideentry {1}{1}{1}{9/10}{Hardware Security Modules}{0}}
\headcommand {\beamer@framepages {9}{10}}
\headcommand {\beamer@subsectionentry {0}{1}{2}{11}{PKCS\#11}}\headcommand {\beamer@subsectionpages {9}{10}}
\headcommand {\slideentry {1}{2}{1}{11/12}{PKCS\#11}{0}}
\headcommand {\beamer@framepages {11}{12}}
\headcommand {\slideentry {1}{2}{2}{13/14}{PKCS\#11}{0}}
\headcommand {\beamer@framepages {13}{14}}
\headcommand {\slideentry {1}{2}{3}{15/16}{PKCS\#11}{0}}
\headcommand {\beamer@framepages {15}{16}}
\headcommand {\beamer@subsectionentry {0}{1}{3}{17}{Related work}}\headcommand {\beamer@subsectionpages {11}{16}}
\headcommand {\slideentry {1}{3}{1}{17/18}{Related work}{0}}
\headcommand {\beamer@framepages {17}{18}}
\headcommand {\sectionentry {2}{Contribution}{19}{Contribution}{0}}
\headcommand {\beamer@sectionpages {8}{18}}
\headcommand {\beamer@subsectionpages {17}{18}}
\headcommand {\slideentry {2}{0}{1}{19/19}{}{0}}
\headcommand {\beamer@framepages {19}{19}}
\headcommand {\beamer@subsectionentry {0}{2}{1}{20}{Goal}}\headcommand {\beamer@subsectionpages {19}{19}}
\headcommand {\slideentry {2}{1}{1}{20/21}{Goal}{0}}
\headcommand {\beamer@framepages {20}{21}}
\headcommand {\slideentry {2}{1}{2}{22/23}{Goal}{0}}
\headcommand {\beamer@framepages {22}{23}}
\headcommand {\beamer@subsectionentry {0}{2}{2}{24}{Achievement}}\headcommand {\beamer@subsectionpages {20}{23}}
\headcommand {\slideentry {2}{2}{1}{24/25}{Achievement}{0}}
\headcommand {\beamer@framepages {24}{25}}
\headcommand {\sectionentry {3}{Symbolic Analysis}{26}{Symbolic Analysis}{0}}
\headcommand {\beamer@sectionpages {19}{25}}
\headcommand {\beamer@subsectionpages {24}{25}}
\headcommand {\slideentry {3}{0}{1}{26/26}{}{0}}
\headcommand {\beamer@framepages {26}{26}}
\headcommand {\beamer@subsectionentry {0}{3}{1}{27}{Introduction}}\headcommand {\beamer@subsectionpages {26}{26}}
\headcommand {\slideentry {3}{1}{1}{27/28}{Introduction}{0}}
\headcommand {\beamer@framepages {27}{28}}
\headcommand {\slideentry {3}{1}{2}{29/30}{Introduction}{0}}
\headcommand {\beamer@framepages {29}{30}}
\headcommand {\slideentry {3}{1}{3}{31/32}{Introduction}{0}}
\headcommand {\beamer@framepages {31}{32}}
\headcommand {\beamer@subsectionentry {0}{3}{2}{33}{Modelling}}\headcommand {\beamer@subsectionpages {27}{32}}
\headcommand {\slideentry {3}{2}{1}{33/35}{Modelling}{0}}
\headcommand {\beamer@framepages {33}{35}}
\headcommand {\sectionentry {4}{Demonstration}{36}{Demonstration}{0}}
\headcommand {\beamer@sectionpages {26}{35}}
\headcommand {\beamer@subsectionpages {33}{35}}
\headcommand {\slideentry {4}{0}{1}{36/36}{}{0}}
\headcommand {\beamer@framepages {36}{36}}
\headcommand {\sectionentry {5}{Results}{37}{Results}{0}}
\headcommand {\beamer@sectionpages {36}{36}}
\headcommand {\beamer@subsectionpages {36}{36}}
\headcommand {\slideentry {5}{0}{1}{37/37}{}{0}}
\headcommand {\beamer@framepages {37}{37}}
\headcommand {\slideentry {5}{0}{2}{38/39}{}{0}}
\headcommand {\beamer@framepages {38}{39}}
\headcommand {\slideentry {5}{0}{3}{40/40}{}{0}}
\headcommand {\beamer@framepages {40}{40}}
\headcommand {\beamer@partpages {1}{40}}
\headcommand {\beamer@subsectionpages {37}{40}}
\headcommand {\beamer@sectionpages {37}{40}}
\headcommand {\beamer@documentpages {40}}
\headcommand {\def \inserttotalframenumber {22}}
