digraph G {
nodesep="0.3";
ranksep="0.3";
node[fontsize="12",fontname="FiraMono",width="0.3",height="0.2"];
n6[shape="record",label="{{Fr( ~device )| !Integer( '1' )}|{ rule Device : [ CreateDevice( ~device ),DCtrIs( '1' )}|{ !Device( ~device )|<n5> DCtr( ~device, '1' )| Out( \<~device,'1'\>)}}",fillcolor="#ffccff",style="filled",fontcolor="black"];
}

