%!PS-Adobe-3.0
%%Creator: graphviz version 2.36.0 (20140111.2315)
%%Title: G
%%Pages: (atend)
%%BoundingBox: (atend)
%%EndComments
save
%%BeginProlog
/DotDict 200 dict def
DotDict begin

/setupLatin1 {
mark
/EncodingVector 256 array def
 EncodingVector 0

ISOLatin1Encoding 0 255 getinterval putinterval
EncodingVector 45 /hyphen put

% Set up ISO Latin 1 character encoding
/starnetISO {
        dup dup findfont dup length dict begin
        { 1 index /FID ne { def }{ pop pop } ifelse
        } forall
        /Encoding EncodingVector def
        currentdict end definefont
} def
/Times-Roman starnetISO def
/Times-Italic starnetISO def
/Times-Bold starnetISO def
/Times-BoldItalic starnetISO def
/Helvetica starnetISO def
/Helvetica-Oblique starnetISO def
/Helvetica-Bold starnetISO def
/Helvetica-BoldOblique starnetISO def
/Courier starnetISO def
/Courier-Oblique starnetISO def
/Courier-Bold starnetISO def
/Courier-BoldOblique starnetISO def
cleartomark
} bind def

%%BeginResource: procset graphviz 0 0
/coord-font-family /Times-Roman def
/default-font-family /Times-Roman def
/coordfont coord-font-family findfont 8 scalefont def

/InvScaleFactor 1.0 def
/set_scale {
       dup 1 exch div /InvScaleFactor exch def
       scale
} bind def

% styles
/solid { [] 0 setdash } bind def
/dashed { [9 InvScaleFactor mul dup ] 0 setdash } bind def
/dotted { [1 InvScaleFactor mul 6 InvScaleFactor mul] 0 setdash } bind def
/invis {/fill {newpath} def /stroke {newpath} def /show {pop newpath} def} bind def
/bold { 2 setlinewidth } bind def
/filled { } bind def
/unfilled { } bind def
/rounded { } bind def
/diagonals { } bind def
/tapered { } bind def

% hooks for setting color 
/nodecolor { sethsbcolor } bind def
/edgecolor { sethsbcolor } bind def
/graphcolor { sethsbcolor } bind def
/nopcolor {pop pop pop} bind def

/beginpage {	% i j npages
	/npages exch def
	/j exch def
	/i exch def
	/str 10 string def
	npages 1 gt {
		gsave
			coordfont setfont
			0 0 moveto
			(\() show i str cvs show (,) show j str cvs show (\)) show
		grestore
	} if
} bind def

/set_font {
	findfont exch
	scalefont setfont
} def

% draw text fitted to its expected width
/alignedtext {			% width text
	/text exch def
	/width exch def
	gsave
		width 0 gt {
			[] 0 setdash
			text stringwidth pop width exch sub text length div 0 text ashow
		} if
	grestore
} def

/boxprim {				% xcorner ycorner xsize ysize
		4 2 roll
		moveto
		2 copy
		exch 0 rlineto
		0 exch rlineto
		pop neg 0 rlineto
		closepath
} bind def

/ellipse_path {
	/ry exch def
	/rx exch def
	/y exch def
	/x exch def
	matrix currentmatrix
	newpath
	x y translate
	rx ry scale
	0 0 1 0 360 arc
	setmatrix
} bind def

/endpage { showpage } bind def
/showpage { } def

/layercolorseq
	[	% layer color sequence - darkest to lightest
		[0 0 0]
		[.2 .8 .8]
		[.4 .8 .8]
		[.6 .8 .8]
		[.8 .8 .8]
	]
def

/layerlen layercolorseq length def

/setlayer {/maxlayer exch def /curlayer exch def
	layercolorseq curlayer 1 sub layerlen mod get
	aload pop sethsbcolor
	/nodecolor {nopcolor} def
	/edgecolor {nopcolor} def
	/graphcolor {nopcolor} def
} bind def

/onlayer { curlayer ne {invis} if } def

/onlayers {
	/myupper exch def
	/mylower exch def
	curlayer mylower lt
	curlayer myupper gt
	or
	{invis} if
} def

/curlayer 0 def

%%EndResource
%%EndProlog
%%BeginSetup
14 default-font-family set_font
1 setmiterlimit
% /arrowlength 10 def
% /arrowwidth 5 def

% make sure pdfmark is harmless for PS-interpreters other than Distiller
/pdfmark where {pop} {userdict /pdfmark /cleartomark load put} ifelse
% make '<<' and '>>' safe on PS Level 1 devices
/languagelevel where {pop languagelevel}{1} ifelse
2 lt {
    userdict (<<) cvn ([) cvn load put
    userdict (>>) cvn ([) cvn load put
} if

%%EndSetup
setupLatin1
%%Page: 1 1
%%PageBoundingBox: 36 36 660 300
%%PageOrientation: Portrait
0 0 1 beginpage
gsave
36 36 624 264 boxprim clip newpath
1 1 set_scale 0 rotate 40 40 translate
% n6
gsave
0.25 0.4 1 nodecolor
newpath 110 .5 moveto
110 89.5 lineto
616 89.5 lineto
616 .5 lineto
closepath fill
1 setlinewidth
filled
0 0 0 nodecolor
newpath 110 .5 moveto
110 89.5 lineto
616 89.5 lineto
616 .5 lineto
closepath stroke
0 0 0 nodecolor
12 /FiraMono set_font
140 75.9 moveto 136 (!Device\( ~device \)) alignedtext
1 setlinewidth
filled
0 0 0 nodecolor
newpath 306 68.5 moveto
306 89.5 lineto
stroke
0 0 0 nodecolor
12 /FiraMono set_font
336 75.9 moveto 113 (!Integer\( '1' \)) alignedtext
1 setlinewidth
filled
0 0 0 nodecolor
newpath 479 68.5 moveto
479 89.5 lineto
stroke
0 0 0 nodecolor
12 /FiraMono set_font
509.5 75.9 moveto 76 (Fr\( ~key \)) alignedtext
1 setlinewidth
filled
0 0 0 nodecolor
newpath 110 68.5 moveto
616 68.5 lineto
stroke
0 0 0 nodecolor
12 /FiraMono set_font
118 54.9 moveto 271 (#fifteen : Key[UseDevice\( ~device \),) alignedtext
0 0 0 nodecolor
12 /FiraMono set_font
118 41.9 moveto 256 (           CreateKey\( ~key, '1' \),) alignedtext
0 0 0 nodecolor
12 /FiraMono set_font
118 28.9 moveto 308 (           InitKey\( ~device, ~key, '1' \)]) alignedtext
1 setlinewidth
filled
0 0 0 nodecolor
newpath 110 21.5 moveto
616 21.5 lineto
stroke
0 0 0 nodecolor
12 /FiraMono set_font
118 7.9 moveto 211 (!Store\( ~device, ~key, '1' \)) alignedtext
1 setlinewidth
filled
0 0 0 nodecolor
newpath 337 .5 moveto
337 21.5 lineto
stroke
0 0 0 nodecolor
12 /FiraMono set_font
345 7.9 moveto 263 (Out\( <~device, handle\(~key\), '1'> \)) alignedtext
grestore
% n13
gsave
0.83333 0.2 1 nodecolor
newpath -.5 113 moveto
-.5 189 lineto
492.5 189 lineto
492.5 113 lineto
closepath fill
1 setlinewidth
filled
0 0 0 nodecolor
newpath -.5 113 moveto
-.5 189 lineto
492.5 189 lineto
492.5 113 lineto
closepath stroke
0 0 0 nodecolor
12 /FiraMono set_font
70 175.4 moveto 98 (Fr\( ~device \)) alignedtext
1 setlinewidth
filled
0 0 0 nodecolor
newpath 238.5 168 moveto
238.5 189 lineto
stroke
0 0 0 nodecolor
12 /FiraMono set_font
309 175.4 moveto 113 (!Integer\( '1' \)) alignedtext
1 setlinewidth
filled
0 0 0 nodecolor
newpath -.5 168 moveto
492.5 168 lineto
stroke
0 0 0 nodecolor
12 /FiraMono set_font
7.5 154.4 moveto 301 (#eight : Device[CreateDevice\( ~device \),) alignedtext
0 0 0 nodecolor
12 /FiraMono set_font
7.5 141.4 moveto 241 (         DCtrIs\( ~device, '1' \)]) alignedtext
1 setlinewidth
filled
0 0 0 nodecolor
newpath -.5 134 moveto
492.5 134 lineto
stroke
0 0 0 nodecolor
12 /FiraMono set_font
7.5 120.4 moveto 136 (!Device\( ~device \)) alignedtext
1 setlinewidth
filled
0 0 0 nodecolor
newpath 151.5 113 moveto
151.5 134 lineto
stroke
0 0 0 nodecolor
12 /FiraMono set_font
159.5 120.4 moveto 151 (DCtr\( ~device, '1' \)) alignedtext
1 setlinewidth
filled
0 0 0 nodecolor
newpath 318.5 113 moveto
318.5 134 lineto
stroke
0 0 0 nodecolor
12 /FiraMono set_font
326.5 120.4 moveto 158 (Out\( <~device, '1'> \)) alignedtext
grestore
% n13->n6
gsave
2 setlinewidth
bold
0 0 0.49804 edgecolor
newpath 75 112 moveto
75 56.06 190.92 137.62 206.32 99.94 curveto
stroke
0 0 0.49804 edgecolor
newpath 209.78 100.44 moveto
208 90 lineto
202.88 99.28 lineto
closepath fill
2 setlinewidth
solid
0 0 0.49804 edgecolor
newpath 209.78 100.44 moveto
208 90 lineto
202.88 99.28 lineto
closepath stroke
grestore
% n16
gsave
0.66667 0.28571 0.93333 nodecolor
newpath 332.5 213 moveto
332.5 255 lineto
559.5 255 lineto
559.5 213 lineto
closepath fill
1 setlinewidth
filled
0 0 0 nodecolor
newpath 332.5 213 moveto
332.5 255 lineto
559.5 255 lineto
559.5 213 lineto
closepath stroke
0 0 0 nodecolor
12 /FiraMono set_font
340.5 241.4 moveto 211 (#one : One[IsInteger\( '1' \)]) alignedtext
1 setlinewidth
filled
0 0 0 nodecolor
newpath 332.5 234 moveto
559.5 234 lineto
stroke
0 0 0 nodecolor
12 /FiraMono set_font
389.5 220.4 moveto 113 (!Integer\( '1' \)) alignedtext
grestore
% n16->n6
gsave
2 setlinewidth
bold
0 0 0.49804 edgecolor
newpath 561 223 moveto
570.27 223 597.61 180.27 503 112 curveto
465.89 85.22 404.22 131.08 394.35 100.22 curveto
stroke
0 0 0.49804 edgecolor
newpath 397.78 99.46 moveto
393 90 lineto
390.84 100.37 lineto
closepath fill
2 setlinewidth
solid
0 0 0.49804 edgecolor
newpath 397.78 99.46 moveto
393 90 lineto
390.84 100.37 lineto
closepath stroke
grestore
% n16->n13
gsave
2 setlinewidth
bold
0 0 0.49804 edgecolor
newpath 331 223 moveto
326.09 223 328.61 215.55 332 212 curveto
381.9 159.79 443.1 242.21 493 190 curveto
493.21 189.78 493.42 189.54 493.62 189.29 curveto
stroke
0 0 0.49804 edgecolor
newpath 497.13 189.12 moveto
494 179 lineto
490.14 188.87 lineto
closepath fill
2 setlinewidth
solid
0 0 0.49804 edgecolor
newpath 497.13 189.12 moveto
494 179 lineto
490.14 188.87 lineto
closepath stroke
grestore
endpage
showpage
grestore
%%PageTrailer
%%EndPage: 1
%%Trailer
%%Pages: 1
%%BoundingBox: 36 36 660 300
end
restore
%%EOF
