%!PS-Adobe-3.0
%%Creator: graphviz version 2.36.0 (20140111.2315)
%%Title: G
%%Pages: (atend)
%%BoundingBox: (atend)
%%EndComments
save
%%BeginProlog
/DotDict 200 dict def
DotDict begin

/setupLatin1 {
mark
/EncodingVector 256 array def
 EncodingVector 0

ISOLatin1Encoding 0 255 getinterval putinterval
EncodingVector 45 /hyphen put

% Set up ISO Latin 1 character encoding
/starnetISO {
        dup dup findfont dup length dict begin
        { 1 index /FID ne { def }{ pop pop } ifelse
        } forall
        /Encoding EncodingVector def
        currentdict end definefont
} def
/Times-Roman starnetISO def
/Times-Italic starnetISO def
/Times-Bold starnetISO def
/Times-BoldItalic starnetISO def
/Helvetica starnetISO def
/Helvetica-Oblique starnetISO def
/Helvetica-Bold starnetISO def
/Helvetica-BoldOblique starnetISO def
/Courier starnetISO def
/Courier-Oblique starnetISO def
/Courier-Bold starnetISO def
/Courier-BoldOblique starnetISO def
cleartomark
} bind def

%%BeginResource: procset graphviz 0 0
/coord-font-family /Times-Roman def
/default-font-family /Times-Roman def
/coordfont coord-font-family findfont 8 scalefont def

/InvScaleFactor 1.0 def
/set_scale {
       dup 1 exch div /InvScaleFactor exch def
       scale
} bind def

% styles
/solid { [] 0 setdash } bind def
/dashed { [9 InvScaleFactor mul dup ] 0 setdash } bind def
/dotted { [1 InvScaleFactor mul 6 InvScaleFactor mul] 0 setdash } bind def
/invis {/fill {newpath} def /stroke {newpath} def /show {pop newpath} def} bind def
/bold { 2 setlinewidth } bind def
/filled { } bind def
/unfilled { } bind def
/rounded { } bind def
/diagonals { } bind def
/tapered { } bind def

% hooks for setting color 
/nodecolor { sethsbcolor } bind def
/edgecolor { sethsbcolor } bind def
/graphcolor { sethsbcolor } bind def
/nopcolor {pop pop pop} bind def

/beginpage {	% i j npages
	/npages exch def
	/j exch def
	/i exch def
	/str 10 string def
	npages 1 gt {
		gsave
			coordfont setfont
			0 0 moveto
			(\() show i str cvs show (,) show j str cvs show (\)) show
		grestore
	} if
} bind def

/set_font {
	findfont exch
	scalefont setfont
} def

% draw text fitted to its expected width
/alignedtext {			% width text
	/text exch def
	/width exch def
	gsave
		width 0 gt {
			[] 0 setdash
			text stringwidth pop width exch sub text length div 0 text ashow
		} if
	grestore
} def

/boxprim {				% xcorner ycorner xsize ysize
		4 2 roll
		moveto
		2 copy
		exch 0 rlineto
		0 exch rlineto
		pop neg 0 rlineto
		closepath
} bind def

/ellipse_path {
	/ry exch def
	/rx exch def
	/y exch def
	/x exch def
	matrix currentmatrix
	newpath
	x y translate
	rx ry scale
	0 0 1 0 360 arc
	setmatrix
} bind def

/endpage { showpage } bind def
/showpage { } def

/layercolorseq
	[	% layer color sequence - darkest to lightest
		[0 0 0]
		[.2 .8 .8]
		[.4 .8 .8]
		[.6 .8 .8]
		[.8 .8 .8]
	]
def

/layerlen layercolorseq length def

/setlayer {/maxlayer exch def /curlayer exch def
	layercolorseq curlayer 1 sub layerlen mod get
	aload pop sethsbcolor
	/nodecolor {nopcolor} def
	/edgecolor {nopcolor} def
	/graphcolor {nopcolor} def
} bind def

/onlayer { curlayer ne {invis} if } def

/onlayers {
	/myupper exch def
	/mylower exch def
	curlayer mylower lt
	curlayer myupper gt
	or
	{invis} if
} def

/curlayer 0 def

%%EndResource
%%EndProlog
%%BeginSetup
14 default-font-family set_font
1 setmiterlimit
% /arrowlength 10 def
% /arrowwidth 5 def

% make sure pdfmark is harmless for PS-interpreters other than Distiller
/pdfmark where {pop} {userdict /pdfmark /cleartomark load put} ifelse
% make '<<' and '>>' safe on PS Level 1 devices
/languagelevel where {pop languagelevel}{1} ifelse
2 lt {
    userdict (<<) cvn ([) cvn load put
    userdict (>>) cvn ([) cvn load put
} if

%%EndSetup
setupLatin1
%%Page: 1 1
%%PageBoundingBox: 36 36 619 436
%%PageOrientation: Portrait
0 0 1 beginpage
gsave
36 36 583 400 boxprim clip newpath
1 1 set_scale 0 rotate 40 40 translate
% n4
gsave
0 0.42857 0.93333 nodecolor
newpath 82 .5 moveto
82 63.5 lineto
346 63.5 lineto
346 .5 lineto
closepath fill
1 setlinewidth
filled
0 0 0 nodecolor
newpath 82 .5 moveto
82 63.5 lineto
346 63.5 lineto
346 .5 lineto
closepath stroke
0 0 0 nodecolor
12 /FiraMono set_font
91 49.9 moveto 91 (!Store\( wk \)) alignedtext
1 setlinewidth
filled
0 0 0 nodecolor
newpath 191 42.5 moveto
191 63.5 lineto
stroke
0 0 0 nodecolor
12 /FiraMono set_font
200.5 49.9 moveto 136 (In\( senc\(wk, ek\) \)) alignedtext
1 setlinewidth
filled
0 0 0 nodecolor
newpath 82 42.5 moveto
346 42.5 lineto
stroke
0 0 0 nodecolor
12 /FiraMono set_font
90 28.9 moveto 248 (#unwrap : Unwrap[ImportKey\( ek \)]) alignedtext
1 setlinewidth
filled
0 0 0 nodecolor
newpath 82 21.5 moveto
346 21.5 lineto
stroke
0 0 0 nodecolor
12 /FiraMono set_font
168.5 7.9 moveto 91 (!Store\( ek \)) alignedtext
grestore
% n5
gsave
1 setlinewidth
0 0 0 nodecolor
321 101 80.41 14.7 ellipse_path stroke
0 0 0 nodecolor
12 /FiraMono set_font
272 97.9 moveto 98 (#four : isend) alignedtext
grestore
% n5->n4
gsave
1 setlinewidth
0 0 0.30196 edgecolor
newpath 334.59 86.15 moveto
341.95 78.14 350.06 68.31 352.64 61.44 curveto
stroke
0 0 0.30196 edgecolor
newpath 355.46 59.37 moveto
347 53 lineto
349.64 63.26 lineto
closepath fill
1 setlinewidth
solid
0 0 0.30196 edgecolor
newpath 355.46 59.37 moveto
347 53 lineto
349.64 63.26 lineto
closepath stroke
grestore
% n6
gsave
1 setlinewidth
0 0 0 nodecolor
373 153 202.41 14.7 ellipse_path stroke
0 0 0 nodecolor
12 /FiraMono set_font
237.5 149.9 moveto 271 (#three : coerce[!KU\( senc\(wk, ek\) \)]) alignedtext
grestore
% n6->n5
gsave
1 setlinewidth
dotted
0 0 0 edgecolor
newpath 358.52 138.07 moveto
353.67 133.41 348.15 128.11 342.87 123.03 curveto
stroke
0 0 0 edgecolor
newpath 345.04 120.26 moveto
335.41 115.85 lineto
340.19 125.31 lineto
closepath fill
1 setlinewidth
solid
0 0 0 edgecolor
newpath 345.04 120.26 moveto
335.41 115.85 lineto
340.19 125.31 lineto
closepath stroke
grestore
% n11
gsave
0.083333 0.4 1 nodecolor
newpath 170 190.5 moveto
170 253.5 lineto
354 253.5 lineto
354 190.5 lineto
closepath fill
1 setlinewidth
filled
0 0 0 nodecolor
newpath 170 190.5 moveto
170 253.5 lineto
354 253.5 lineto
354 190.5 lineto
closepath stroke
0 0 0 nodecolor
12 /FiraMono set_font
178 239.9 moveto 91 (!Store\( wk \)) alignedtext
1 setlinewidth
filled
0 0 0 nodecolor
newpath 277 232.5 moveto
277 253.5 lineto
stroke
0 0 0 nodecolor
12 /FiraMono set_font
285 239.9 moveto 61 (In\( ek \)) alignedtext
1 setlinewidth
filled
0 0 0 nodecolor
newpath 170 232.5 moveto
354 232.5 lineto
stroke
0 0 0 nodecolor
12 /FiraMono set_font
186.5 218.9 moveto 151 (#encrypt : Encrypt[]) alignedtext
1 setlinewidth
filled
0 0 0 nodecolor
newpath 170 211.5 moveto
354 211.5 lineto
stroke
0 0 0 nodecolor
12 /FiraMono set_font
190.5 197.9 moveto 143 (Out\( senc\(wk, ek\) \)) alignedtext
grestore
% n11->n6
gsave
1 setlinewidth
0.043137 1 0.93333 edgecolor
newpath 355 201 moveto
365.9 201 370.45 189.83 372.25 178.38 curveto
stroke
0.043137 1 0.93333 edgecolor
newpath 375.77 178.39 moveto
373.24 168.1 lineto
368.8 177.72 lineto
closepath fill
1 setlinewidth
solid
0.043137 1 0.93333 edgecolor
newpath 375.77 178.39 moveto
373.24 168.1 lineto
368.8 177.72 lineto
closepath stroke
grestore
% n12
gsave
1 setlinewidth
0 0 0 nodecolor
370 308 75.49 14.7 ellipse_path stroke
0 0 0 nodecolor
12 /FiraMono set_font
324.5 304.9 moveto 91 (#two : isend) alignedtext
grestore
% n12->n11
gsave
1 setlinewidth
0 0 0.30196 edgecolor
newpath 372.29 293.11 moveto
374.17 277.97 375.05 254.75 364.69 246.25 curveto
stroke
0 0 0.30196 edgecolor
newpath 365.59 242.87 moveto
355 243 lineto
363.36 249.5 lineto
closepath fill
1 setlinewidth
solid
0 0 0.30196 edgecolor
newpath 365.59 242.87 moveto
355 243 lineto
363.36 249.5 lineto
closepath stroke
grestore
% n16
gsave
0.25 0.4 1 nodecolor
newpath 0 276.5 moveto
0 339.5 lineto
272 339.5 lineto
272 276.5 lineto
closepath fill
1 setlinewidth
filled
0 0 0 nodecolor
newpath 0 276.5 moveto
0 339.5 lineto
272 339.5 lineto
272 276.5 lineto
closepath stroke
0 0 0 nodecolor
12 /FiraMono set_font
105.5 325.9 moveto 61 (Fr\( wk \)) alignedtext
1 setlinewidth
filled
0 0 0 nodecolor
newpath 0 318.5 moveto
272 318.5 lineto
stroke
0 0 0 nodecolor
12 /FiraMono set_font
8 304.9 moveto 256 (#newKey : New_Key[CreateKey\( wk \)]) alignedtext
1 setlinewidth
filled
0 0 0 nodecolor
newpath 0 297.5 moveto
272 297.5 lineto
stroke
0 0 0 nodecolor
12 /FiraMono set_font
90.5 283.9 moveto 91 (!Store\( wk \)) alignedtext
grestore
% n16->n4
gsave
2 setlinewidth
bold
0 0 0.49804 edgecolor
newpath 136 276 moveto
136 185.27 136 160.07 136 74.2 curveto
stroke
0 0 0.49804 edgecolor
newpath 139.5 74 moveto
136 64 lineto
132.5 74 lineto
closepath fill
2 setlinewidth
solid
0 0 0.49804 edgecolor
newpath 139.5 74 moveto
136 64 lineto
132.5 74 lineto
closepath stroke
grestore
% n16->n11
gsave
2 setlinewidth
bold
0 0 0.49804 edgecolor
newpath 273 287 moveto
277.91 287 275.25 279.68 272 276 curveto
241.26 241.27 200.74 288.73 170 254 curveto
169.8 253.77 169.6 253.53 169.4 253.27 curveto
stroke
0 0 0.49804 edgecolor
newpath 172.89 252.86 moveto
169 243 lineto
165.89 253.13 lineto
closepath fill
2 setlinewidth
solid
0 0 0.49804 edgecolor
newpath 172.89 252.86 moveto
169 243 lineto
165.89 253.13 lineto
closepath stroke
grestore
% n17
gsave
1 setlinewidth
0 0 0.75294 nodecolor
370 377 96.31 14.7 ellipse_path stroke
0 0 0 nodecolor
12 /FiraMono set_font
309.5 373.9 moveto 121 (!KU\( ek \) @ #one) alignedtext
grestore
% n17->n12
gsave
1 setlinewidth
dotted
0 0 0 edgecolor
newpath 370 362.12 moveto
370 353.76 370 342.89 370 333.17 curveto
stroke
0 0 0 edgecolor
newpath 373.5 332.86 moveto
370 322.86 lineto
366.5 332.86 lineto
closepath fill
1 setlinewidth
solid
0 0 0 edgecolor
newpath 373.5 332.86 moveto
370 322.86 lineto
366.5 332.86 lineto
closepath stroke
grestore
endpage
showpage
grestore
%%PageTrailer
%%EndPage: 1
%%Trailer
%%Pages: 1
%%BoundingBox: 36 36 619 436
end
restore
%%EOF
