%!PS-Adobe-3.0
%%Creator: graphviz version 2.36.0 (20140111.2315)
%%Title: G
%%Pages: (atend)
%%BoundingBox: (atend)
%%EndComments
save
%%BeginProlog
/DotDict 200 dict def
DotDict begin

/setupLatin1 {
mark
/EncodingVector 256 array def
 EncodingVector 0

ISOLatin1Encoding 0 255 getinterval putinterval
EncodingVector 45 /hyphen put

% Set up ISO Latin 1 character encoding
/starnetISO {
        dup dup findfont dup length dict begin
        { 1 index /FID ne { def }{ pop pop } ifelse
        } forall
        /Encoding EncodingVector def
        currentdict end definefont
} def
/Times-Roman starnetISO def
/Times-Italic starnetISO def
/Times-Bold starnetISO def
/Times-BoldItalic starnetISO def
/Helvetica starnetISO def
/Helvetica-Oblique starnetISO def
/Helvetica-Bold starnetISO def
/Helvetica-BoldOblique starnetISO def
/Courier starnetISO def
/Courier-Oblique starnetISO def
/Courier-Bold starnetISO def
/Courier-BoldOblique starnetISO def
cleartomark
} bind def

%%BeginResource: procset graphviz 0 0
/coord-font-family /Times-Roman def
/default-font-family /Times-Roman def
/coordfont coord-font-family findfont 8 scalefont def

/InvScaleFactor 1.0 def
/set_scale {
       dup 1 exch div /InvScaleFactor exch def
       scale
} bind def

% styles
/solid { [] 0 setdash } bind def
/dashed { [9 InvScaleFactor mul dup ] 0 setdash } bind def
/dotted { [1 InvScaleFactor mul 6 InvScaleFactor mul] 0 setdash } bind def
/invis {/fill {newpath} def /stroke {newpath} def /show {pop newpath} def} bind def
/bold { 2 setlinewidth } bind def
/filled { } bind def
/unfilled { } bind def
/rounded { } bind def
/diagonals { } bind def
/tapered { } bind def

% hooks for setting color 
/nodecolor { sethsbcolor } bind def
/edgecolor { sethsbcolor } bind def
/graphcolor { sethsbcolor } bind def
/nopcolor {pop pop pop} bind def

/beginpage {	% i j npages
	/npages exch def
	/j exch def
	/i exch def
	/str 10 string def
	npages 1 gt {
		gsave
			coordfont setfont
			0 0 moveto
			(\() show i str cvs show (,) show j str cvs show (\)) show
		grestore
	} if
} bind def

/set_font {
	findfont exch
	scalefont setfont
} def

% draw text fitted to its expected width
/alignedtext {			% width text
	/text exch def
	/width exch def
	gsave
		width 0 gt {
			[] 0 setdash
			text stringwidth pop width exch sub text length div 0 text ashow
		} if
	grestore
} def

/boxprim {				% xcorner ycorner xsize ysize
		4 2 roll
		moveto
		2 copy
		exch 0 rlineto
		0 exch rlineto
		pop neg 0 rlineto
		closepath
} bind def

/ellipse_path {
	/ry exch def
	/rx exch def
	/y exch def
	/x exch def
	matrix currentmatrix
	newpath
	x y translate
	rx ry scale
	0 0 1 0 360 arc
	setmatrix
} bind def

/endpage { showpage } bind def
/showpage { } def

/layercolorseq
	[	% layer color sequence - darkest to lightest
		[0 0 0]
		[.2 .8 .8]
		[.4 .8 .8]
		[.6 .8 .8]
		[.8 .8 .8]
	]
def

/layerlen layercolorseq length def

/setlayer {/maxlayer exch def /curlayer exch def
	layercolorseq curlayer 1 sub layerlen mod get
	aload pop sethsbcolor
	/nodecolor {nopcolor} def
	/edgecolor {nopcolor} def
	/graphcolor {nopcolor} def
} bind def

/onlayer { curlayer ne {invis} if } def

/onlayers {
	/myupper exch def
	/mylower exch def
	curlayer mylower lt
	curlayer myupper gt
	or
	{invis} if
} def

/curlayer 0 def

%%EndResource
%%EndProlog
%%BeginSetup
14 default-font-family set_font
1 setmiterlimit
% /arrowlength 10 def
% /arrowwidth 5 def

% make sure pdfmark is harmless for PS-interpreters other than Distiller
/pdfmark where {pop} {userdict /pdfmark /cleartomark load put} ifelse
% make '<<' and '>>' safe on PS Level 1 devices
/languagelevel where {pop languagelevel}{1} ifelse
2 lt {
    userdict (<<) cvn ([) cvn load put
    userdict (>>) cvn ([) cvn load put
} if

%%EndSetup
setupLatin1
%%Page: 1 1
%%PageBoundingBox: 36 36 604 436
%%PageOrientation: Portrait
0 0 1 beginpage
gsave
36 36 568 400 boxprim clip newpath
1 1 set_scale 0 rotate 40 40 translate
% n3
gsave
0.25 0.4 1 nodecolor
newpath 264 328.5 moveto
264 391.5 lineto
506 391.5 lineto
506 328.5 lineto
closepath fill
1 setlinewidth
filled
0 0 0 nodecolor
newpath 264 328.5 moveto
264 391.5 lineto
506 391.5 lineto
506 328.5 lineto
closepath stroke
0 0 0 nodecolor
12 /FiraMono set_font
351 377.9 moveto 68 (Fr\( ~ek \)) alignedtext
1 setlinewidth
filled
0 0 0 nodecolor
newpath 264 370.5 moveto
506 370.5 lineto
stroke
0 0 0 nodecolor
12 /FiraMono set_font
272 356.9 moveto 226 (#j : New_Key[CreateKey\( ~ek \)]) alignedtext
1 setlinewidth
filled
0 0 0 nodecolor
newpath 264 349.5 moveto
506 349.5 lineto
stroke
0 0 0 nodecolor
12 /FiraMono set_font
336 335.9 moveto 98 (!Store\( ~ek \)) alignedtext
grestore
% n20
gsave
0 0.4 1 nodecolor
newpath 214 242.5 moveto
214 305.5 lineto
442 305.5 lineto
442 242.5 lineto
closepath fill
1 setlinewidth
filled
0 0 0 nodecolor
newpath 214 242.5 moveto
214 305.5 lineto
442 305.5 lineto
442 242.5 lineto
closepath stroke
0 0 0 nodecolor
12 /FiraMono set_font
222 291.9 moveto 98 (!Store\( ~wk \)) alignedtext
1 setlinewidth
filled
0 0 0 nodecolor
newpath 328 284.5 moveto
328 305.5 lineto
stroke
0 0 0 nodecolor
12 /FiraMono set_font
336 291.9 moveto 98 (!Store\( ~ek \)) alignedtext
1 setlinewidth
filled
0 0 0 nodecolor
newpath 214 284.5 moveto
442 284.5 lineto
stroke
0 0 0 nodecolor
12 /FiraMono set_font
275 270.9 moveto 106 (#wrap : Wrap[]) alignedtext
1 setlinewidth
filled
0 0 0 nodecolor
newpath 214 263.5 moveto
442 263.5 lineto
stroke
0 0 0 nodecolor
12 /FiraMono set_font
249 249.9 moveto 158 (Out\( senc\(~wk, ~ek\) \)) alignedtext
grestore
% n3->n20
gsave
2 setlinewidth
bold
0 0 0.49804 edgecolor
newpath 385 328 moveto
385 322.65 385 319.5 385 316.14 curveto
stroke
0 0 0.49804 edgecolor
newpath 388.5 316 moveto
385 306 lineto
381.5 316 lineto
closepath fill
2 setlinewidth
solid
0 0 0.49804 edgecolor
newpath 388.5 316 moveto
385 306 lineto
381.5 316 lineto
closepath stroke
grestore
% n4
gsave
1 setlinewidth
0 0 0 nodecolor
205 15 144.37 14.7 ellipse_path stroke
0 0 0 nodecolor
12 /FiraMono set_font
111 11.9 moveto 188 (#bad : coerce[!KU\( ~ek \)]) alignedtext
grestore
% n5
gsave
1 setlinewidth
0 0 0 nodecolor
358 205 202.41 14.7 ellipse_path stroke
0 0 0 nodecolor
12 /FiraMono set_font
222.5 201.9 moveto 271 (#out : coerce[!KU\( senc\(~wk, ~ek\) \)]) alignedtext
grestore
% n11
gsave
1 setlinewidth
0 0 0 nodecolor
310 153 70.01 14.7 ellipse_path stroke
0 0 0 nodecolor
12 /FiraMono set_font
268.5 149.9 moveto 83 (#in : isend) alignedtext
grestore
% n5->n11
gsave
1 setlinewidth
dotted
0 0 0 edgecolor
newpath 344.63 190.07 moveto
340.26 185.52 335.3 180.36 330.53 175.39 curveto
stroke
0 0 0 edgecolor
newpath 332.75 172.64 moveto
323.3 167.85 lineto
327.7 177.49 lineto
closepath fill
1 setlinewidth
solid
0 0 0 edgecolor
newpath 332.75 172.64 moveto
323.3 167.85 lineto
327.7 177.49 lineto
closepath stroke
grestore
% n10
gsave
0.083333 0.42857 0.93333 nodecolor
newpath 64.5 52.5 moveto
64.5 115.5 lineto
345.5 115.5 lineto
345.5 52.5 lineto
closepath fill
1 setlinewidth
filled
0 0 0 nodecolor
newpath 64.5 52.5 moveto
64.5 115.5 lineto
345.5 115.5 lineto
345.5 52.5 lineto
closepath stroke
0 0 0 nodecolor
12 /FiraMono set_font
72.5 101.9 moveto 98 (!Store\( ~wk \)) alignedtext
1 setlinewidth
filled
0 0 0 nodecolor
newpath 178.5 94.5 moveto
178.5 115.5 lineto
stroke
0 0 0 nodecolor
12 /FiraMono set_font
186.5 101.9 moveto 151 (In\( senc\(~wk, ~ek\) \)) alignedtext
1 setlinewidth
filled
0 0 0 nodecolor
newpath 64.5 94.5 moveto
345.5 94.5 lineto
stroke
0 0 0 nodecolor
12 /FiraMono set_font
129.5 80.9 moveto 151 (#decrypt : Decrypt[]) alignedtext
1 setlinewidth
filled
0 0 0 nodecolor
newpath 64.5 73.5 moveto
345.5 73.5 lineto
stroke
0 0 0 nodecolor
12 /FiraMono set_font
167 59.9 moveto 76 (Out\( ~ek \)) alignedtext
grestore
% n10->n4
gsave
1 setlinewidth
0.043137 1 0.93333 edgecolor
newpath 205 52 moveto
205 48.15 205 44.07 205 40.08 curveto
stroke
0.043137 1 0.93333 edgecolor
newpath 208.5 40.02 moveto
205 30.02 lineto
201.5 40.02 lineto
closepath fill
1 setlinewidth
solid
0.043137 1 0.93333 edgecolor
newpath 208.5 40.02 moveto
205 30.02 lineto
201.5 40.02 lineto
closepath stroke
grestore
% n11->n10
gsave
1 setlinewidth
0 0 0.30196 edgecolor
newpath 327.2 138.41 moveto
336.54 130.6 347.06 121 351.43 114.1 curveto
stroke
0 0 0.30196 edgecolor
newpath 354.52 112.46 moveto
347 105 lineto
348.23 115.52 lineto
closepath fill
1 setlinewidth
solid
0 0 0.30196 edgecolor
newpath 354.52 112.46 moveto
347 105 lineto
348.23 115.52 lineto
closepath stroke
grestore
% n15
gsave
0.25 0.4 1 nodecolor
newpath 0 328.5 moveto
0 391.5 lineto
242 391.5 lineto
242 328.5 lineto
closepath fill
1 setlinewidth
filled
0 0 0 nodecolor
newpath 0 328.5 moveto
0 391.5 lineto
242 391.5 lineto
242 328.5 lineto
closepath stroke
0 0 0 nodecolor
12 /FiraMono set_font
87 377.9 moveto 68 (Fr\( ~wk \)) alignedtext
1 setlinewidth
filled
0 0 0 nodecolor
newpath 0 370.5 moveto
242 370.5 lineto
stroke
0 0 0 nodecolor
12 /FiraMono set_font
8 356.9 moveto 226 (#i : New_Key[CreateKey\( ~wk \)]) alignedtext
1 setlinewidth
filled
0 0 0 nodecolor
newpath 0 349.5 moveto
242 349.5 lineto
stroke
0 0 0 nodecolor
12 /FiraMono set_font
72 335.9 moveto 98 (!Store\( ~wk \)) alignedtext
grestore
% n15->n10
gsave
2 setlinewidth
bold
0 0 0.49804 edgecolor
newpath 121 328 moveto
121 237.27 121 212.07 121 126.2 curveto
stroke
0 0 0.49804 edgecolor
newpath 124.5 126 moveto
121 116 lineto
117.5 126 lineto
closepath fill
2 setlinewidth
solid
0 0 0.49804 edgecolor
newpath 124.5 126 moveto
121 116 lineto
117.5 126 lineto
closepath stroke
grestore
% n15->n20
gsave
2 setlinewidth
bold
0 0 0.49804 edgecolor
newpath 243 339 moveto
247.91 339 244.34 332.31 242 328 curveto
234.44 314.09 221.56 319.91 214 306 curveto
213.85 305.73 213.7 305.45 213.55 305.17 curveto
stroke
0 0 0.49804 edgecolor
newpath 217.03 304.8 moveto
213 295 lineto
210.04 305.17 lineto
closepath fill
2 setlinewidth
solid
0 0 0.49804 edgecolor
newpath 217.03 304.8 moveto
213 295 lineto
210.04 305.17 lineto
closepath stroke
grestore
% n20->n5
gsave
1 setlinewidth
0.043137 1 0.93333 edgecolor
newpath 328 242 moveto
328 236.98 329.75 232.28 332.39 228.05 curveto
stroke
0.043137 1 0.93333 edgecolor
newpath 335.29 230.04 moveto
338.83 220.05 lineto
329.83 225.65 lineto
closepath fill
1 setlinewidth
solid
0.043137 1 0.93333 edgecolor
newpath 335.29 230.04 moveto
338.83 220.05 lineto
329.83 225.65 lineto
closepath stroke
grestore
endpage
showpage
grestore
%%PageTrailer
%%EndPage: 1
%%Trailer
%%Pages: 1
%%BoundingBox: 36 36 604 436
end
restore
%%EOF
